<svg xmlns="http://www.w3.org/2000/svg" width="20" height="12" viewBox="0 0 20 12">
    <g fill="none" fill-rule="evenodd" stroke="#D21F26" stroke-linecap="round" stroke-linejoin="round">
        <path d="M18.606 5.58H.5M13.562.611l5.044 4.97-5.044 4.97"/>
    </g>
</svg>
