<svg xmlns="http://www.w3.org/2000/svg" width="22" height="27" viewBox="0 0 22 27">
    <g fill="none" fill-rule="evenodd" stroke="#6C7E94" stroke-linecap="round" stroke-linejoin="round">
        <path d="M16.483.45v4.5h5"/>
        <path d="M21.482 25.632c0 .491-.442.9-.989.9H1.484c-.546 0-.984-.409-.984-.9V1.356C.5.866.938.45 1.484.45h14.998c.26 0 .38.1.565.264l4.14 3.678c.188.166.295.32.295.558v20.682zM17.26 13.02H4.707M17.26 16.626H4.707M17.26 20.23H4.707M11.681 9.416H4.708"/>
    </g>
</svg>
