<svg xmlns="http://www.w3.org/2000/svg" width="64" height="64" viewBox="0 0 64 64">
    <g fill="none" fill-rule="evenodd" stroke="#D21F26" stroke-linecap="round" stroke-width="2">
        <path d="M41.36 33.063a3.816 3.816 0 1 1 7.632 0 3.816 3.816 0 0 1-7.632 0zM32.9 45.672a3.816 3.816 0 1 1 7.632 0 3.816 3.816 0 0 1-7.632 0zM36.715 20.827a3.816 3.816 0 1 1 7.632 0 3.816 3.816 0 0 1-7.632 0zM24.238 19.935a3.816 3.816 0 1 1 7.632 0 3.816 3.816 0 0 1-7.632 0zM41.36 33.063H15.181"/>
        <path d="M15.182 27.994h4.072l5.933-5.546M25.91 27.994h6.99l4.58-4.243M15.182 38.27H28.56l5.438 4.722"/>
        <path d="M55.21 32.803c0-.757-.04-1.506-.113-2.245a1.187 1.187 0 0 1 .505-1.105l3.056-2.093c.434-.297.62-.845.458-1.345l-1.172-3.607a1.186 1.186 0 0 0-1.16-.819l-3.701.104a1.184 1.184 0 0 1-1.051-.594 23.192 23.192 0 0 0-2.652-3.639 1.181 1.181 0 0 1-.24-1.184l1.244-3.496a1.185 1.185 0 0 0-.421-1.356l-3.067-2.229a1.185 1.185 0 0 0-1.42.02l-2.932 2.257a1.183 1.183 0 0 1-1.2.139 22.95 22.95 0 0 0-4.285-1.39 1.184 1.184 0 0 1-.892-.817L35.12 5.85A1.185 1.185 0 0 0 33.983 5H30.19c-.526 0-.99.346-1.137.85l-1.047 3.554a1.184 1.184 0 0 1-.892.817 22.95 22.95 0 0 0-4.285 1.39 1.18 1.18 0 0 1-1.2-.139l-2.932-2.257a1.185 1.185 0 0 0-1.42-.02l-3.067 2.23a1.183 1.183 0 0 0-.42 1.355l1.243 3.496c.146.41.049.86-.24 1.184a23.192 23.192 0 0 0-2.652 3.64c-.22.373-.618.604-1.051.592L7.39 21.59a1.187 1.187 0 0 0-1.16.82l-1.172 3.605c-.162.5.024 1.048.458 1.345l3.056 2.094c.36.246.548.67.505 1.104a22.835 22.835 0 0 0-.114 2.246c0 .759.04 1.508.114 2.247.043.434-.145.857-.505 1.104l-3.056 2.093c-.434.297-.62.845-.458 1.345l1.172 3.606c.163.5.635.833 1.16.82l3.7-.104c.434-.012.832.22 1.052.593a23.192 23.192 0 0 0 2.652 3.64c.289.324.386.774.24 1.183l-1.243 3.496a1.183 1.183 0 0 0 .42 1.356l3.067 2.23a1.185 1.185 0 0 0 1.42-.02l2.933-2.258a1.18 1.18 0 0 1 1.199-.138 22.95 22.95 0 0 0 4.285 1.39c.425.092.769.4.892.816l1.047 3.554c.148.504.61.851 1.137.851h3.792c.526 0 .989-.347 1.137-.85l1.047-3.555c.123-.417.467-.724.892-.817a22.95 22.95 0 0 0 4.285-1.389 1.183 1.183 0 0 1 1.2.138l2.932 2.257c.416.321.994.33 1.42.02l3.067-2.229c.426-.309.597-.86.42-1.356L49.14 49.33a1.181 1.181 0 0 1 .24-1.184 23.192 23.192 0 0 0 2.652-3.639c.22-.374.618-.605 1.05-.593l3.702.103c.525.014.998-.319 1.16-.819l1.172-3.606a1.187 1.187 0 0 0-.458-1.345l-3.056-2.094a1.187 1.187 0 0 1-.505-1.104c.073-.739.114-1.488.114-2.246z"/>
    </g>
</svg>
