<svg xmlns="http://www.w3.org/2000/svg" width="50" height="50" viewBox="0 0 50 50">
    <g fill="#D21F26" fill-rule="evenodd">
        <path d="M41.224 21.54c0 8.888-4.02 14.767-7.392 18.133-3.83 3.822-7.922 5.518-8.832 5.518-.909 0-5.003-1.696-8.83-5.518-3.374-3.366-7.394-9.245-7.394-18.134v-8.555C14.488 11.332 19.807 9.027 25 5.952c5.064 2.993 10.649 5.413 16.224 7.031v8.556zm1.124-10.115c-5.809-1.62-11.651-4.146-16.897-7.3a.874.874 0 0 0-.902 0c-5.396 3.245-10.923 5.633-16.896 7.3a.902.902 0 0 0-.653.872v9.242c0 9.518 4.31 15.818 7.926 19.427C18.82 44.851 23.354 47 25 47c1.646 0 6.181-2.149 10.075-6.034C38.69 37.357 43 31.057 43 21.539v-9.242a.902.902 0 0 0-.652-.872z"/>
        <path d="M17.935 12.568c-.189-.461-.729-.686-1.208-.506a77.15 77.15 0 0 1-5.075 1.726.901.901 0 0 0-.652.856v3.46c0 .495.417.896.931.896s.93-.401.93-.897v-2.805a79.94 79.94 0 0 0 4.548-1.568.885.885 0 0 0 .526-1.162M18.993 13a.986.986 0 0 0 .397-.084l.019-.008a.996.996 0 0 0-.8-1.824l-.017.007a.996.996 0 0 0-.508 1.311.99.99 0 0 0 .909.598M35.602 33.156c-.406-.289-.95-.165-1.215.276a23.157 23.157 0 0 1-5.041 5.857c-.386.319-.46.917-.166 1.335a.852.852 0 0 0 .699.376.832.832 0 0 0 .532-.195 24.923 24.923 0 0 0 2.715-2.624 24.88 24.88 0 0 0 2.73-3.705c.266-.441.152-1.032-.254-1.32M27.54 40.135l-.056.033a.988.988 0 0 0-.354 1.341.965.965 0 0 0 1.326.358l.064-.038a.989.989 0 0 0 .347-1.343.964.964 0 0 0-1.327-.351"/>
    </g>
</svg>
