<svg xmlns="http://www.w3.org/2000/svg" id="facebook" width="44" height="44" viewBox="0 0 44 44">
    <g class="el1" fill="none" fill-rule="evenodd">
        <circle class="el2" cx="22" cy="22" r="21" stroke="#4A4A4A" stroke-width="2" opacity=".2"/>
        <path class="el3" fill="#273444" d="M23.315 34h-4.878V22.499H16v-3.963h2.437v-2.38c0-3.233 1.376-5.156 5.286-5.156h3.255v3.964h-2.034c-1.523 0-1.623.554-1.623 1.588l-.007 1.984H27l-.431 3.963h-3.255V34z"/>
    </g>
</svg>
