<svg xmlns="http://www.w3.org/2000/svg" width="44" height="44" viewBox="0 0 44 44">
    <g fill="none" fill-rule="evenodd">
        <circle cx="22" cy="22" r="21" stroke="#FFF" stroke-width="2" opacity=".2"/>
        <path fill="#FFF" d="M27.09 18.054l1.337 4.122 1.97-.641a1.96 1.96 0 0 1 1.209 3.726l-1.97.64.66 2.038c.332 1.02-.301 2.125-1.34 2.424a1.955 1.955 0 0 1-2.379-1.214l-.66-2.037-4.118 1.34.66 2.037c.332 1.02-.301 2.125-1.34 2.424A1.955 1.955 0 0 1 18.74 31.7l-.66-2.037-2.036.662c-1.02.332-2.122-.302-2.42-1.341a1.96 1.96 0 0 1 1.212-2.383l2.034-.662-1.338-4.124-2.034.662c-1.02.332-2.122-.302-2.421-1.342a1.959 1.959 0 0 1 1.212-2.382l2.034-.662-.64-1.975a1.956 1.956 0 1 1 3.72-1.21l.64 1.974 4.117-1.34-.64-1.974a1.955 1.955 0 1 1 3.72-1.21l.64 1.973 1.97-.642a1.96 1.96 0 0 1 1.209 3.726l-1.97.642zm-3.72 1.21l-4.118 1.34 1.338 4.123 4.117-1.34-1.338-4.123z"/>
    </g>
</svg>
