<svg xmlns="http://www.w3.org/2000/svg" id="youtube" width="44" height="44" viewBox="0 0 44 44">
    <g class="el1" fill="none" fill-rule="evenodd">
        <circle class="el2" cx="22" cy="22" r="21" stroke="#4A4A4A" stroke-width="2" opacity=".2"/>
        <path class="el3" fill="#273444" d="M32 25.564v-7.128S32 15 28.553 15H15.445S12 15 12 18.436v7.128S12 29 15.445 29h13.108S32 29 32 25.564m-6.117-3.554l-6.548 3.833v-7.667l6.548 3.834"/>
    </g>
</svg>
